{
  "iisSettings": {
    "windowsAuthentication": false,
    "anonymousAuthentication": true
  },
  "profiles": {
    "chilakil.orders.graphql": {
      "commandName": "Project",
      "launchBrowser": true,
      "environmentVariables": {
        "ASPNETCORE_ENVIRONMENT": "Development"
      },
      "applicationUrl": "http://localhost:5002"
    }
  }
}